[gd_scene load_steps=3 format=2]

[ext_resource path="res://item/item.tscn" type="PackedScene" id=1]
[ext_resource path="res://item/bitcoin/gpu.gd" type="Script" id=2]

[node name="gpu" instance=ExtResource( 1 )]

script = ExtResource( 2 )

[node name="btn_generate" parent="." index="0"]

text = "GPU"


